<?xml version="1.0" encoding="UTF-8" standalone="no"?>
<svg
   xmlns:dc="http://purl.org/dc/elements/1.1/"
   xmlns:cc="http://creativecommons.org/ns#"
   xmlns:rdf="http://www.w3.org/1999/02/22-rdf-syntax-ns#"
   xmlns:svg="http://www.w3.org/2000/svg"
   xmlns="http://www.w3.org/2000/svg"
   xmlns:xlink="http://www.w3.org/1999/xlink"
   style="enable-background:new"
   id="svg8"
   version="1.1"
   viewBox="0 0 245.22917 134.29999"
   height="13.429999cm"
   width="24.522917cm">
  <defs
     id="defs2">
    <marker
       style="overflow:visible"
       id="marker13384"
       refX="0"
       refY="0"
       orient="auto">
      <path
         transform="scale(-0.6)"
         d="M 8.7185878,4.0337352 -2.2072895,0.01601326 8.7185884,-4.0017078 c -1.7454984,2.3720609 -1.7354408,5.6174519 -6e-7,8.035443 z"
         style="fill:#eee8d5;fill-opacity:1;fill-rule:evenodd;stroke:#eee8d5;stroke-width:0.625;stroke-linejoin:round;stroke-opacity:1"
         id="path13382" />
    </marker>
    <marker
       orient="auto"
       refY="0"
       refX="0"
       id="marker12726"
       style="overflow:visible">
      <path
         id="path12724"
         style="fill:#eee8d5;fill-opacity:1;fill-rule:evenodd;stroke:#eee8d5;stroke-width:0.625;stroke-linejoin:round;stroke-opacity:1"
         d="M 8.7185878,4.0337352 -2.2072895,0.01601326 8.7185884,-4.0017078 c -1.7454984,2.3720609 -1.7354408,5.6174519 -6e-7,8.035443 z"
         transform="scale(0.6)" />
    </marker>
    <marker
       orient="auto"
       refY="0"
       refX="0"
       id="marker12074"
       style="overflow:visible">
      <path
         id="path12072"
         style="fill:#eee8d5;fill-opacity:1;fill-rule:evenodd;stroke:#eee8d5;stroke-width:0.625;stroke-linejoin:round;stroke-opacity:1"
         d="M 8.7185878,4.0337352 -2.2072895,0.01601326 8.7185884,-4.0017078 c -1.7454984,2.3720609 -1.7354408,5.6174519 -6e-7,8.035443 z"
         transform="scale(-0.6)" />
    </marker>
    <marker
       style="overflow:visible"
       id="marker11428"
       refX="0"
       refY="0"
       orient="auto">
      <path
         transform="scale(0.6)"
         d="M 8.7185878,4.0337352 -2.2072895,0.01601326 8.7185884,-4.0017078 c -1.7454984,2.3720609 -1.7354408,5.6174519 -6e-7,8.035443 z"
         style="fill:#eee8d5;fill-opacity:1;fill-rule:evenodd;stroke:#eee8d5;stroke-width:0.625;stroke-linejoin:round;stroke-opacity:1"
         id="path11426" />
    </marker>
    <marker
       style="overflow:visible"
       id="marker10776"
       refX="0"
       refY="0"
       orient="auto">
      <path
         transform="scale(-0.6)"
         d="M 8.7185878,4.0337352 -2.2072895,0.01601326 8.7185884,-4.0017078 c -1.7454984,2.3720609 -1.7354408,5.6174519 -6e-7,8.035443 z"
         style="fill:#eee8d5;fill-opacity:1;fill-rule:evenodd;stroke:#eee8d5;stroke-width:0.625;stroke-linejoin:round;stroke-opacity:1"
         id="path10774" />
    </marker>
    <marker
       style="overflow:visible"
       id="marker10142"
       refX="0"
       refY="0"
       orient="auto">
      <path
         transform="scale(0.6)"
         d="M 8.7185878,4.0337352 -2.2072895,0.01601326 8.7185884,-4.0017078 c -1.7454984,2.3720609 -1.7354408,5.6174519 -6e-7,8.035443 z"
         style="fill:#eee8d5;fill-opacity:1;fill-rule:evenodd;stroke:#eee8d5;stroke-width:0.625;stroke-linejoin:round;stroke-opacity:1"
         id="path10140" />
    </marker>
    <marker
       orient="auto"
       refY="0"
       refX="0"
       id="marker9514"
       style="overflow:visible">
      <path
         id="path9512"
         style="fill:#eee8d5;fill-opacity:1;fill-rule:evenodd;stroke:#eee8d5;stroke-width:0.625;stroke-linejoin:round;stroke-opacity:1"
         d="M 8.7185878,4.0337352 -2.2072895,0.01601326 8.7185884,-4.0017078 c -1.7454984,2.3720609 -1.7354408,5.6174519 -6e-7,8.035443 z"
         transform="scale(-0.6)" />
    </marker>
    <marker
       orient="auto"
       refY="0"
       refX="0"
       id="marker8892"
       style="overflow:visible">
      <path
         id="path8890"
         style="fill:#eee8d5;fill-opacity:1;fill-rule:evenodd;stroke:#eee8d5;stroke-width:0.625;stroke-linejoin:round;stroke-opacity:1"
         d="M 8.7185878,4.0337352 -2.2072895,0.01601326 8.7185884,-4.0017078 c -1.7454984,2.3720609 -1.7354408,5.6174519 -6e-7,8.035443 z"
         transform="scale(0.6)" />
    </marker>
    <marker
       style="overflow:visible"
       id="marker8199"
       refX="0"
       refY="0"
       orient="auto">
      <path
         transform="scale(-0.6)"
         d="M 8.7185878,4.0337352 -2.2072895,0.01601326 8.7185884,-4.0017078 c -1.7454984,2.3720609 -1.7354408,5.6174519 -6e-7,8.035443 z"
         style="fill:#eee8d5;fill-opacity:1;fill-rule:evenodd;stroke:#eee8d5;stroke-width:0.625;stroke-linejoin:round;stroke-opacity:1"
         id="path8197" />
    </marker>
    <marker
       orient="auto"
       refY="0"
       refX="0"
       id="marker7589"
       style="overflow:visible">
      <path
         id="path7587"
         style="fill:#eee8d5;fill-opacity:1;fill-rule:evenodd;stroke:#eee8d5;stroke-width:0.625;stroke-linejoin:round;stroke-opacity:1"
         d="M 8.7185878,4.0337352 -2.2072895,0.01601326 8.7185884,-4.0017078 c -1.7454984,2.3720609 -1.7354408,5.6174519 -6e-7,8.035443 z"
         transform="scale(0.6)" />
    </marker>
    <marker
       style="overflow:visible"
       id="marker30282"
       refX="0"
       refY="0"
       orient="auto">
      <path
         transform="scale(-0.6)"
         d="M 8.7185878,4.0337352 -2.2072895,0.01601326 8.7185884,-4.0017078 c -1.7454984,2.3720609 -1.7354408,5.6174519 -6e-7,8.035443 z"
         style="fill:#eee8d5;fill-opacity:1;fill-rule:evenodd;stroke:#eee8d5;stroke-width:0.625;stroke-linejoin:round;stroke-opacity:1"
         id="path30280" />
    </marker>
    <marker
       orient="auto"
       refY="0"
       refX="0"
       id="marker29684"
       style="overflow:visible">
      <path
         id="path29682"
         style="fill:#eee8d5;fill-opacity:1;fill-rule:evenodd;stroke:#eee8d5;stroke-width:0.625;stroke-linejoin:round;stroke-opacity:1"
         d="M 8.7185878,4.0337352 -2.2072895,0.01601326 8.7185884,-4.0017078 c -1.7454984,2.3720609 -1.7354408,5.6174519 -6e-7,8.035443 z"
         transform="scale(0.6)" />
    </marker>
    <marker
       orient="auto"
       refY="0"
       refX="0"
       id="marker29080"
       style="overflow:visible">
      <path
         id="path29078"
         style="fill:#eee8d5;fill-opacity:1;fill-rule:evenodd;stroke:#eee8d5;stroke-width:0.625;stroke-linejoin:round;stroke-opacity:1"
         d="M 8.7185878,4.0337352 -2.2072895,0.01601326 8.7185884,-4.0017078 c -1.7454984,2.3720609 -1.7354408,5.6174519 -6e-7,8.035443 z"
         transform="scale(-0.6)" />
    </marker>
    <marker
       style="overflow:visible"
       id="marker28494"
       refX="0"
       refY="0"
       orient="auto">
      <path
         transform="scale(0.6)"
         d="M 8.7185878,4.0337352 -2.2072895,0.01601326 8.7185884,-4.0017078 c -1.7454984,2.3720609 -1.7354408,5.6174519 -6e-7,8.035443 z"
         style="fill:#eee8d5;fill-opacity:1;fill-rule:evenodd;stroke:#eee8d5;stroke-width:0.625;stroke-linejoin:round;stroke-opacity:1"
         id="path28492" />
    </marker>
    <marker
       style="overflow:visible"
       id="marker27902"
       refX="0"
       refY="0"
       orient="auto">
      <path
         transform="scale(-0.6)"
         d="M 8.7185878,4.0337352 -2.2072895,0.01601326 8.7185884,-4.0017078 c -1.7454984,2.3720609 -1.7354408,5.6174519 -6e-7,8.035443 z"
         style="fill:#eee8d5;fill-opacity:1;fill-rule:evenodd;stroke:#eee8d5;stroke-width:0.625;stroke-linejoin:round;stroke-opacity:1"
         id="path27900" />
    </marker>
    <marker
       style="overflow:visible"
       id="marker27328"
       refX="0"
       refY="0"
       orient="auto">
      <path
         transform="scale(0.6)"
         d="M 8.7185878,4.0337352 -2.2072895,0.01601326 8.7185884,-4.0017078 c -1.7454984,2.3720609 -1.7354408,5.6174519 -6e-7,8.035443 z"
         style="fill:#eee8d5;fill-opacity:1;fill-rule:evenodd;stroke:#eee8d5;stroke-width:0.625;stroke-linejoin:round;stroke-opacity:1"
         id="path27326" />
    </marker>
    <marker
       style="overflow:visible"
       id="marker26724"
       refX="0"
       refY="0"
       orient="auto">
      <path
         transform="scale(-0.6)"
         d="M 8.7185878,4.0337352 -2.2072895,0.01601326 8.7185884,-4.0017078 c -1.7454984,2.3720609 -1.7354408,5.6174519 -6e-7,8.035443 z"
         style="fill:#eee8d5;fill-opacity:1;fill-rule:evenodd;stroke:#eee8d5;stroke-width:0.625;stroke-linejoin:round;stroke-opacity:1"
         id="path26722" />
    </marker>
    <marker
       orient="auto"
       refY="0"
       refX="0"
       id="marker26162"
       style="overflow:visible">
      <path
         id="path26160"
         style="fill:#eee8d5;fill-opacity:1;fill-rule:evenodd;stroke:#eee8d5;stroke-width:0.625;stroke-linejoin:round;stroke-opacity:1"
         d="M 8.7185878,4.0337352 -2.2072895,0.01601326 8.7185884,-4.0017078 c -1.7454984,2.3720609 -1.7354408,5.6174519 -6e-7,8.035443 z"
         transform="scale(0.6)" />
    </marker>
    <marker
       orient="auto"
       refY="0"
       refX="0"
       id="marker25606"
       style="overflow:visible">
      <path
         id="path25604"
         style="fill:#eee8d5;fill-opacity:1;fill-rule:evenodd;stroke:#eee8d5;stroke-width:0.625;stroke-linejoin:round;stroke-opacity:1"
         d="M 8.7185878,4.0337352 -2.2072895,0.01601326 8.7185884,-4.0017078 c -1.7454984,2.3720609 -1.7354408,5.6174519 -6e-7,8.035443 z"
         transform="scale(-0.6)" />
    </marker>
    <marker
       orient="auto"
       refY="0"
       refX="0"
       id="marker25056"
       style="overflow:visible">
      <path
         id="path25054"
         style="fill:#eee8d5;fill-opacity:1;fill-rule:evenodd;stroke:#eee8d5;stroke-width:0.625;stroke-linejoin:round;stroke-opacity:1"
         d="M 8.7185878,4.0337352 -2.2072895,0.01601326 8.7185884,-4.0017078 c -1.7454984,2.3720609 -1.7354408,5.6174519 -6e-7,8.035443 z"
         transform="scale(0.6)" />
    </marker>
    <linearGradient
       id="linearGradient24404">
      <stop
         style="stop-color:#aaaaaa;stop-opacity:1"
         offset="0"
         id="stop24400" />
      <stop
         style="stop-color:#fffdff;stop-opacity:0"
         offset="1"
         id="stop24402" />
    </linearGradient>
    <linearGradient
       id="linearGradient24398">
      <stop
         style="stop-color:#aaaaaa;stop-opacity:1"
         offset="0"
         id="stop24394" />
      <stop
         style="stop-color:#fffdff;stop-opacity:0"
         offset="1"
         id="stop24396" />
    </linearGradient>
    <linearGradient
       id="linearGradient24392">
      <stop
         style="stop-color:#aaaaaa;stop-opacity:1"
         offset="0"
         id="stop24388" />
      <stop
         style="stop-color:#fffdff;stop-opacity:0"
         offset="1"
         id="stop24390" />
    </linearGradient>
    <linearGradient
       id="linearGradient24386">
      <stop
         style="stop-color:#aaaaaa;stop-opacity:1"
         offset="0"
         id="stop24382" />
      <stop
         style="stop-color:#fffdff;stop-opacity:0"
         offset="1"
         id="stop24384" />
    </linearGradient>
    <linearGradient
       id="linearGradient24380">
      <stop
         style="stop-color:#aaaaaa;stop-opacity:1"
         offset="0"
         id="stop24376" />
      <stop
         style="stop-color:#fffdff;stop-opacity:0"
         offset="1"
         id="stop24378" />
    </linearGradient>
    <linearGradient
       id="linearGradient24374">
      <stop
         style="stop-color:#aaaaaa;stop-opacity:1"
         offset="0"
         id="stop24370" />
      <stop
         style="stop-color:#fffdff;stop-opacity:0"
         offset="1"
         id="stop24372" />
    </linearGradient>
    <marker
       orient="auto"
       refY="0"
       refX="0"
       id="marker23200"
       style="overflow:visible">
      <path
         id="path23198"
         style="fill:#ff0000;fill-opacity:1;fill-rule:evenodd;stroke:#ff0000;stroke-width:0.625;stroke-linejoin:round;stroke-opacity:1"
         d="M 8.7185878,4.0337352 -2.2072895,0.01601326 8.7185884,-4.0017078 c -1.7454984,2.3720609 -1.7354408,5.6174519 -6e-7,8.035443 z"
         transform="scale(-0.6)" />
    </marker>
    <marker
       orient="auto"
       refY="0"
       refX="0"
       id="marker22662"
       style="overflow:visible">
      <path
         id="path22660"
         style="fill:#ff0000;fill-opacity:1;fill-rule:evenodd;stroke:#ff0000;stroke-width:0.625;stroke-linejoin:round;stroke-opacity:1"
         d="M 8.7185878,4.0337352 -2.2072895,0.01601326 8.7185884,-4.0017078 c -1.7454984,2.3720609 -1.7354408,5.6174519 -6e-7,8.035443 z"
         transform="scale(0.6)" />
    </marker>
    <marker
       orient="auto"
       refY="0"
       refX="0"
       id="marker21974"
       style="overflow:visible">
      <path
         id="path21972"
         style="fill:#ff0000;fill-opacity:1;fill-rule:evenodd;stroke:#ff0000;stroke-width:0.625;stroke-linejoin:round;stroke-opacity:1"
         d="M 8.7185878,4.0337352 -2.2072895,0.01601326 8.7185884,-4.0017078 c -1.7454984,2.3720609 -1.7354408,5.6174519 -6e-7,8.035443 z"
         transform="scale(-0.6)" />
    </marker>
    <marker
       style="overflow:visible"
       id="marker21448"
       refX="0"
       refY="0"
       orient="auto">
      <path
         transform="scale(0.6)"
         d="M 8.7185878,4.0337352 -2.2072895,0.01601326 8.7185884,-4.0017078 c -1.7454984,2.3720609 -1.7354408,5.6174519 -6e-7,8.035443 z"
         style="fill:#ff0000;fill-opacity:1;fill-rule:evenodd;stroke:#ff0000;stroke-width:0.625;stroke-linejoin:round;stroke-opacity:1"
         id="path21446" />
    </marker>
    <marker
       style="overflow:visible"
       id="marker20490"
       refX="0"
       refY="0"
       orient="auto">
      <path
         transform="scale(-0.6)"
         d="M 8.7185878,4.0337352 -2.2072895,0.01601326 8.7185884,-4.0017078 c -1.7454984,2.3720609 -1.7354408,5.6174519 -6e-7,8.035443 z"
         style="fill:#ff0000;fill-opacity:1;fill-rule:evenodd;stroke:#ff0000;stroke-width:0.625;stroke-linejoin:round;stroke-opacity:1"
         id="path20488" />
    </marker>
    <marker
       orient="auto"
       refY="0"
       refX="0"
       id="marker19976"
       style="overflow:visible">
      <path
         id="path19974"
         style="fill:#ff0000;fill-opacity:1;fill-rule:evenodd;stroke:#ff0000;stroke-width:0.625;stroke-linejoin:round;stroke-opacity:1"
         d="M 8.7185878,4.0337352 -2.2072895,0.01601326 8.7185884,-4.0017078 c -1.7454984,2.3720609 -1.7354408,5.6174519 -6e-7,8.035443 z"
         transform="scale(0.6)" />
    </marker>
    <marker
       style="overflow:visible"
       id="marker19468"
       refX="0"
       refY="0"
       orient="auto">
      <path
         transform="scale(-0.6)"
         d="M 8.7185878,4.0337352 -2.2072895,0.01601326 8.7185884,-4.0017078 c -1.7454984,2.3720609 -1.7354408,5.6174519 -6e-7,8.035443 z"
         style="fill:#ff0000;fill-opacity:1;fill-rule:evenodd;stroke:#ff0000;stroke-width:0.625;stroke-linejoin:round;stroke-opacity:1"
         id="path19466" />
    </marker>
    <marker
       style="overflow:visible"
       id="marker18966"
       refX="0"
       refY="0"
       orient="auto">
      <path
         transform="scale(0.6)"
         d="M 8.7185878,4.0337352 -2.2072895,0.01601326 8.7185884,-4.0017078 c -1.7454984,2.3720609 -1.7354408,5.6174519 -6e-7,8.035443 z"
         style="fill:#ff0000;fill-opacity:1;fill-rule:evenodd;stroke:#ff0000;stroke-width:0.625;stroke-linejoin:round;stroke-opacity:1"
         id="path18964" />
    </marker>
    <marker
       style="overflow:visible"
       id="marker18405"
       refX="0"
       refY="0"
       orient="auto">
      <path
         transform="scale(-0.6)"
         d="M 8.7185878,4.0337352 -2.2072895,0.01601326 8.7185884,-4.0017078 c -1.7454984,2.3720609 -1.7354408,5.6174519 -6e-7,8.035443 z"
         style="fill:#ff0000;fill-opacity:1;fill-rule:evenodd;stroke:#ff0000;stroke-width:0.625;stroke-linejoin:round;stroke-opacity:1"
         id="path18403" />
    </marker>
    <marker
       orient="auto"
       refY="0"
       refX="0"
       id="marker17915"
       style="overflow:visible">
      <path
         id="path17913"
         style="fill:#ff0000;fill-opacity:1;fill-rule:evenodd;stroke:#ff0000;stroke-width:0.625;stroke-linejoin:round;stroke-opacity:1"
         d="M 8.7185878,4.0337352 -2.2072895,0.01601326 8.7185884,-4.0017078 c -1.7454984,2.3720609 -1.7354408,5.6174519 -6e-7,8.035443 z"
         transform="scale(0.6)" />
    </marker>
    <linearGradient
       id="linearGradient11915">
      <stop
         id="stop11911"
         offset="0"
         style="stop-color:#aaaaaa;stop-opacity:1" />
      <stop
         id="stop11913"
         offset="1"
         style="stop-color:#fffdff;stop-opacity:0" />
    </linearGradient>
    <marker
       orient="auto"
       refY="0"
       refX="0"
       id="marker7528"
       style="overflow:visible">
      <path
         id="path7526"
         style="fill:#eee8d5;fill-opacity:1;fill-rule:evenodd;stroke:#eee8d5;stroke-width:0.625;stroke-linejoin:round;stroke-opacity:1"
         d="M 8.7185878,4.0337352 -2.2072895,0.01601326 8.7185884,-4.0017078 c -1.7454984,2.3720609 -1.7354408,5.6174519 -6e-7,8.035443 z"
         transform="scale(-0.6)" />
    </marker>
    <marker
       style="overflow:visible"
       id="marker7032"
       refX="0"
       refY="0"
       orient="auto">
      <path
         transform="scale(0.6)"
         d="M 8.7185878,4.0337352 -2.2072895,0.01601326 8.7185884,-4.0017078 c -1.7454984,2.3720609 -1.7354408,5.6174519 -6e-7,8.035443 z"
         style="fill:#eee8d5;fill-opacity:1;fill-rule:evenodd;stroke:#eee8d5;stroke-width:0.625;stroke-linejoin:round;stroke-opacity:1"
         id="path7030" />
    </marker>
    <marker
       style="overflow:visible"
       id="marker6540"
       refX="0"
       refY="0"
       orient="auto">
      <path
         transform="scale(-0.6)"
         d="M 8.7185878,4.0337352 -2.2072895,0.01601326 8.7185884,-4.0017078 c -1.7454984,2.3720609 -1.7354408,5.6174519 -6e-7,8.035443 z"
         style="fill:#eee8d5;fill-opacity:1;fill-rule:evenodd;stroke:#eee8d5;stroke-width:0.625;stroke-linejoin:round;stroke-opacity:1"
         id="path6538" />
    </marker>
    <marker
       orient="auto"
       refY="0"
       refX="0"
       id="marker6056"
       style="overflow:visible">
      <path
         id="path6054"
         style="fill:#eee8d5;fill-opacity:1;fill-rule:evenodd;stroke:#eee8d5;stroke-width:0.625;stroke-linejoin:round;stroke-opacity:1"
         d="M 8.7185878,4.0337352 -2.2072895,0.01601326 8.7185884,-4.0017078 c -1.7454984,2.3720609 -1.7354408,5.6174519 -6e-7,8.035443 z"
         transform="scale(0.6)" />
    </marker>
    <marker
       style="overflow:visible"
       id="marker4634"
       refX="0"
       refY="0"
       orient="auto">
      <path
         transform="scale(0.6)"
         d="M 8.7185878,4.0337352 -2.2072895,0.01601326 8.7185884,-4.0017078 c -1.7454984,2.3720609 -1.7354408,5.6174519 -6e-7,8.035443 z"
         style="fill:#eee8d5;fill-opacity:1;fill-rule:evenodd;stroke:#eee8d5;stroke-width:0.625;stroke-linejoin:round;stroke-opacity:1"
         id="path4632" />
    </marker>
    <marker
       orient="auto"
       refY="0"
       refX="0"
       id="marker3664"
       style="overflow:visible">
      <path
         id="path3662"
         style="fill:#eee8d5;fill-opacity:1;fill-rule:evenodd;stroke:#eee8d5;stroke-width:0.625;stroke-linejoin:round;stroke-opacity:1"
         d="M 8.7185878,4.0337352 -2.2072895,0.01601326 8.7185884,-4.0017078 c -1.7454984,2.3720609 -1.7354408,5.6174519 -6e-7,8.035443 z"
         transform="scale(-0.6)" />
    </marker>
    <marker
       orient="auto"
       refY="0"
       refX="0"
       id="marker3192"
       style="overflow:visible">
      <path
         id="path3190"
         style="fill:#eee8d5;fill-opacity:1;fill-rule:evenodd;stroke:#eee8d5;stroke-width:0.625;stroke-linejoin:round;stroke-opacity:1"
         d="M 8.7185878,4.0337352 -2.2072895,0.01601326 8.7185884,-4.0017078 c -1.7454984,2.3720609 -1.7354408,5.6174519 -6e-7,8.035443 z"
         transform="scale(0.6)" />
    </marker>
    <marker
       style="overflow:visible"
       id="marker2724"
       refX="0"
       refY="0"
       orient="auto">
      <path
         transform="scale(-0.6)"
         d="M 8.7185878,4.0337352 -2.2072895,0.01601326 8.7185884,-4.0017078 c -1.7454984,2.3720609 -1.7354408,5.6174519 -6e-7,8.035443 z"
         style="fill:#eee8d5;fill-opacity:1;fill-rule:evenodd;stroke:#eee8d5;stroke-width:0.625;stroke-linejoin:round;stroke-opacity:1"
         id="path2722" />
    </marker>
    <marker
       style="overflow:visible"
       id="marker2264"
       refX="0"
       refY="0"
       orient="auto">
      <path
         transform="scale(0.6)"
         d="M 8.7185878,4.0337352 -2.2072895,0.01601326 8.7185884,-4.0017078 c -1.7454984,2.3720609 -1.7354408,5.6174519 -6e-7,8.035443 z"
         style="fill:#eee8d5;fill-opacity:1;fill-rule:evenodd;stroke:#eee8d5;stroke-width:0.625;stroke-linejoin:round;stroke-opacity:1"
         id="path2262" />
    </marker>
    <marker
       orient="auto"
       refY="0"
       refX="0"
       id="marker6772"
       style="overflow:visible">
      <path
         id="path6770"
         style="fill:#eee8d5;fill-opacity:1;fill-rule:evenodd;stroke:#eee8d5;stroke-width:0.625;stroke-linejoin:round;stroke-opacity:1"
         d="M 8.7185878,4.0337352 -2.2072895,0.01601326 8.7185884,-4.0017078 c -1.7454984,2.3720609 -1.7354408,5.6174519 -6e-7,8.035443 z"
         transform="scale(-0.6)" />
    </marker>
    <marker
       orient="auto"
       refY="0"
       refX="0"
       id="marker32114"
       style="overflow:visible">
      <path
         id="path32112"
         style="fill:#000000;fill-opacity:1;fill-rule:evenodd;stroke:#000000;stroke-width:0.625;stroke-linejoin:round;stroke-opacity:1"
         d="M 8.7185878,4.0337352 -2.2072895,0.01601326 8.7185884,-4.0017078 c -1.7454984,2.3720609 -1.7354408,5.6174519 -6e-7,8.035443 z"
         transform="scale(-0.6)" />
    </marker>
    <marker
       orient="auto"
       refY="0"
       refX="0"
       id="marker31504"
       style="overflow:visible">
      <path
         id="path31502"
         style="fill:#000000;fill-opacity:1;fill-rule:evenodd;stroke:#000000;stroke-width:0.625;stroke-linejoin:round;stroke-opacity:1"
         d="M 8.7185878,4.0337352 -2.2072895,0.01601326 8.7185884,-4.0017078 c -1.7454984,2.3720609 -1.7354408,5.6174519 -6e-7,8.035443 z"
         transform="scale(0.6)" />
    </marker>
    <marker
       style="overflow:visible"
       id="marker26262"
       refX="0"
       refY="0"
       orient="auto">
      <path
         transform="scale(-0.6)"
         d="M 8.7185878,4.0337352 -2.2072895,0.01601326 8.7185884,-4.0017078 c -1.7454984,2.3720609 -1.7354408,5.6174519 -6e-7,8.035443 z"
         style="fill:#dedede;fill-opacity:1;fill-rule:evenodd;stroke:#dedede;stroke-width:0.625;stroke-linejoin:round;stroke-opacity:1"
         id="path26260" />
    </marker>
    <marker
       style="overflow:visible"
       id="marker25844"
       refX="0"
       refY="0"
       orient="auto">
      <path
         transform="scale(0.6)"
         d="M 8.7185878,4.0337352 -2.2072895,0.01601326 8.7185884,-4.0017078 c -1.7454984,2.3720609 -1.7354408,5.6174519 -6e-7,8.035443 z"
         style="fill:#dedede;fill-opacity:1;fill-rule:evenodd;stroke:#dedede;stroke-width:0.625;stroke-linejoin:round;stroke-opacity:1"
         id="path25842" />
    </marker>
    <marker
       style="overflow:visible"
       id="marker25306"
       refX="0"
       refY="0"
       orient="auto">
      <path
         transform="scale(0.6)"
         d="M 8.7185878,4.0337352 -2.2072895,0.01601326 8.7185884,-4.0017078 c -1.7454984,2.3720609 -1.7354408,5.6174519 -6e-7,8.035443 z"
         style="fill:#dedede;fill-opacity:1;fill-rule:evenodd;stroke:#dedede;stroke-width:0.625;stroke-linejoin:round;stroke-opacity:1"
         id="path25304" />
    </marker>
    <marker
       orient="auto"
       refY="0"
       refX="0"
       id="marker24696"
       style="overflow:visible">
      <path
         id="path24694"
         style="fill:#dedede;fill-opacity:1;fill-rule:evenodd;stroke:#dedede;stroke-width:0.625;stroke-linejoin:round;stroke-opacity:1"
         d="M 8.7185878,4.0337352 -2.2072895,0.01601326 8.7185884,-4.0017078 c -1.7454984,2.3720609 -1.7354408,5.6174519 -6e-7,8.035443 z"
         transform="scale(-0.6)" />
    </marker>
    <marker
       orient="auto"
       refY="0"
       refX="0"
       id="marker24290"
       style="overflow:visible">
      <path
         id="path24288"
         style="fill:#dedede;fill-opacity:1;fill-rule:evenodd;stroke:#dedede;stroke-width:0.625;stroke-linejoin:round;stroke-opacity:1"
         d="M 8.7185878,4.0337352 -2.2072895,0.01601326 8.7185884,-4.0017078 c -1.7454984,2.3720609 -1.7354408,5.6174519 -6e-7,8.035443 z"
         transform="scale(-0.6)" />
    </marker>
    <marker
       orient="auto"
       refY="0"
       refX="0"
       id="marker23896"
       style="overflow:visible">
      <path
         id="path23894"
         style="fill:#dedede;fill-opacity:1;fill-rule:evenodd;stroke:#dedede;stroke-width:0.625;stroke-linejoin:round;stroke-opacity:1"
         d="M 8.7185878,4.0337352 -2.2072895,0.01601326 8.7185884,-4.0017078 c -1.7454984,2.3720609 -1.7354408,5.6174519 -6e-7,8.035443 z"
         transform="scale(-0.6)" />
    </marker>
    <marker
       orient="auto"
       refY="0"
       refX="0"
       id="marker23508"
       style="overflow:visible">
      <path
         id="path23506"
         style="fill:#dedede;fill-opacity:1;fill-rule:evenodd;stroke:#dedede;stroke-width:0.625;stroke-linejoin:round;stroke-opacity:1"
         d="M 8.7185878,4.0337352 -2.2072895,0.01601326 8.7185884,-4.0017078 c -1.7454984,2.3720609 -1.7354408,5.6174519 -6e-7,8.035443 z"
         transform="scale(-0.6)" />
    </marker>
    <marker
       orient="auto"
       refY="0"
       refX="0"
       id="marker23126"
       style="overflow:visible">
      <path
         id="path23124"
         style="fill:#dedede;fill-opacity:1;fill-rule:evenodd;stroke:#dedede;stroke-width:0.625;stroke-linejoin:round;stroke-opacity:1"
         d="M 8.7185878,4.0337352 -2.2072895,0.01601326 8.7185884,-4.0017078 c -1.7454984,2.3720609 -1.7354408,5.6174519 -6e-7,8.035443 z"
         transform="scale(-0.6)" />
    </marker>
    <marker
       orient="auto"
       refY="0"
       refX="0"
       id="marker22750"
       style="overflow:visible">
      <path
         id="path22748"
         style="fill:#dedede;fill-opacity:1;fill-rule:evenodd;stroke:#dedede;stroke-width:0.625;stroke-linejoin:round;stroke-opacity:1"
         d="M 8.7185878,4.0337352 -2.2072895,0.01601326 8.7185884,-4.0017078 c -1.7454984,2.3720609 -1.7354408,5.6174519 -6e-7,8.035443 z"
         transform="scale(-0.6)" />
    </marker>
    <marker
       style="overflow:visible"
       id="marker22374"
       refX="0"
       refY="0"
       orient="auto">
      <path
         transform="scale(0.6)"
         d="M 8.7185878,4.0337352 -2.2072895,0.01601326 8.7185884,-4.0017078 c -1.7454984,2.3720609 -1.7354408,5.6174519 -6e-7,8.035443 z"
         style="fill:#000000;fill-opacity:1;fill-rule:evenodd;stroke:#000000;stroke-width:0.625;stroke-linejoin:round;stroke-opacity:1"
         id="path22372" />
    </marker>
    <marker
       style="overflow:visible"
       id="marker21998"
       refX="0"
       refY="0"
       orient="auto">
      <path
         transform="scale(0.6)"
         d="M 8.7185878,4.0337352 -2.2072895,0.01601326 8.7185884,-4.0017078 c -1.7454984,2.3720609 -1.7354408,5.6174519 -6e-7,8.035443 z"
         style="fill:#000000;fill-opacity:1;fill-rule:evenodd;stroke:#000000;stroke-width:0.625;stroke-linejoin:round;stroke-opacity:1"
         id="path21996" />
    </marker>
    <marker
       style="overflow:visible"
       id="marker21628"
       refX="0"
       refY="0"
       orient="auto">
      <path
         transform="scale(0.6)"
         d="M 8.7185878,4.0337352 -2.2072895,0.01601326 8.7185884,-4.0017078 c -1.7454984,2.3720609 -1.7354408,5.6174519 -6e-7,8.035443 z"
         style="fill:#000000;fill-opacity:1;fill-rule:evenodd;stroke:#000000;stroke-width:0.625;stroke-linejoin:round;stroke-opacity:1"
         id="path21626" />
    </marker>
    <marker
       style="overflow:visible"
       id="marker21264"
       refX="0"
       refY="0"
       orient="auto">
      <path
         transform="scale(0.6)"
         d="M 8.7185878,4.0337352 -2.2072895,0.01601326 8.7185884,-4.0017078 c -1.7454984,2.3720609 -1.7354408,5.6174519 -6e-7,8.035443 z"
         style="fill:#000000;fill-opacity:1;fill-rule:evenodd;stroke:#000000;stroke-width:0.625;stroke-linejoin:round;stroke-opacity:1"
         id="path21262" />
    </marker>
    <marker
       style="overflow:visible"
       id="marker20906"
       refX="0"
       refY="0"
       orient="auto">
      <path
         transform="scale(0.6)"
         d="M 8.7185878,4.0337352 -2.2072895,0.01601326 8.7185884,-4.0017078 c -1.7454984,2.3720609 -1.7354408,5.6174519 -6e-7,8.035443 z"
         style="fill:#000000;fill-opacity:1;fill-rule:evenodd;stroke:#000000;stroke-width:0.625;stroke-linejoin:round;stroke-opacity:1"
         id="path20904" />
    </marker>
    <marker
       orient="auto"
       refY="0"
       refX="0"
       id="marker20536"
       style="overflow:visible">
      <path
         id="path20534"
         style="fill:#000000;fill-opacity:1;fill-rule:evenodd;stroke:#000000;stroke-width:0.625;stroke-linejoin:round;stroke-opacity:1"
         d="M 8.7185878,4.0337352 -2.2072895,0.01601326 8.7185884,-4.0017078 c -1.7454984,2.3720609 -1.7354408,5.6174519 -6e-7,8.035443 z"
         transform="scale(-0.6)" />
    </marker>
    <marker
       orient="auto"
       refY="0"
       refX="0"
       id="marker19102"
       style="overflow:visible">
      <path
         id="path19100"
         style="fill:#000000;fill-opacity:1;fill-rule:evenodd;stroke:#000000;stroke-width:0.625;stroke-linejoin:round;stroke-opacity:1"
         d="M 8.7185878,4.0337352 -2.2072895,0.01601326 8.7185884,-4.0017078 c -1.7454984,2.3720609 -1.7354408,5.6174519 -6e-7,8.035443 z"
         transform="scale(-0.6)" />
    </marker>
    <marker
       orient="auto"
       refY="0"
       refX="0"
       id="marker18780"
       style="overflow:visible">
      <path
         id="path18778"
         style="fill:#dedede;fill-opacity:1;fill-rule:evenodd;stroke:#dedede;stroke-width:0.625;stroke-linejoin:round;stroke-opacity:1"
         d="M 8.7185878,4.0337352 -2.2072895,0.01601326 8.7185884,-4.0017078 c -1.7454984,2.3720609 -1.7354408,5.6174519 -6e-7,8.035443 z"
         transform="scale(0.6)" />
    </marker>
    <marker
       style="overflow:visible"
       id="marker18400"
       refX="0"
       refY="0"
       orient="auto">
      <path
         transform="scale(-0.6)"
         d="M 8.7185878,4.0337352 -2.2072895,0.01601326 8.7185884,-4.0017078 c -1.7454984,2.3720609 -1.7354408,5.6174519 -6e-7,8.035443 z"
         style="fill:#000000;fill-opacity:1;fill-rule:evenodd;stroke:#000000;stroke-width:0.625;stroke-linejoin:round;stroke-opacity:1"
         id="path18398" />
    </marker>
    <marker
       style="overflow:visible"
       id="marker18090"
       refX="0"
       refY="0"
       orient="auto">
      <path
         transform="scale(0.6)"
         d="M 8.7185878,4.0337352 -2.2072895,0.01601326 8.7185884,-4.0017078 c -1.7454984,2.3720609 -1.7354408,5.6174519 -6e-7,8.035443 z"
         style="fill:#dedede;fill-opacity:1;fill-rule:evenodd;stroke:#dedede;stroke-width:0.625;stroke-linejoin:round;stroke-opacity:1"
         id="path18088" />
    </marker>
    <marker
       orient="auto"
       refY="0"
       refX="0"
       id="marker17758"
       style="overflow:visible">
      <path
         id="path17756"
         style="fill:#000000;fill-opacity:1;fill-rule:evenodd;stroke:#000000;stroke-width:0.625;stroke-linejoin:round;stroke-opacity:1"
         d="M 8.7185878,4.0337352 -2.2072895,0.01601326 8.7185884,-4.0017078 c -1.7454984,2.3720609 -1.7354408,5.6174519 -6e-7,8.035443 z"
         transform="scale(-0.6)" />
    </marker>
    <marker
       style="overflow:visible"
       id="marker13894"
       refX="0"
       refY="0"
       orient="auto">
      <path
         transform="scale(-0.6)"
         d="M 8.7185878,4.0337352 -2.2072895,0.01601326 8.7185884,-4.0017078 c -1.7454984,2.3720609 -1.7354408,5.6174519 -6e-7,8.035443 z"
         style="fill:#000000;fill-opacity:1;fill-rule:evenodd;stroke:#000000;stroke-width:0.625;stroke-linejoin:round;stroke-opacity:1"
         id="path13892" />
    </marker>
    <marker
       style="overflow:visible"
       id="marker13644"
       refX="0"
       refY="0"
       orient="auto">
      <path
         transform="scale(0.6)"
         d="M 8.7185878,4.0337352 -2.2072895,0.01601326 8.7185884,-4.0017078 c -1.7454984,2.3720609 -1.7354408,5.6174519 -6e-7,8.035443 z"
         style="fill:#000000;fill-opacity:1;fill-rule:evenodd;stroke:#000000;stroke-width:0.625;stroke-linejoin:round;stroke-opacity:1"
         id="path13642" />
    </marker>
    <marker
       orient="auto"
       refY="0"
       refX="0"
       id="marker12308"
       style="overflow:visible">
      <path
         id="path12306"
         style="fill:#dedede;fill-opacity:1;fill-rule:evenodd;stroke:#dedede;stroke-width:0.625;stroke-linejoin:round;stroke-opacity:1"
         d="M 8.7185878,4.0337352 -2.2072895,0.01601326 8.7185884,-4.0017078 c -1.7454984,2.3720609 -1.7354408,5.6174519 -6e-7,8.035443 z"
         transform="scale(-0.6)" />
    </marker>
    <marker
       orient="auto"
       refY="0"
       refX="0"
       id="marker12094"
       style="overflow:visible">
      <path
         id="path12092"
         style="fill:#dedede;fill-opacity:1;fill-rule:evenodd;stroke:#dedede;stroke-width:0.625;stroke-linejoin:round;stroke-opacity:1"
         d="M 8.7185878,4.0337352 -2.2072895,0.01601326 8.7185884,-4.0017078 c -1.7454984,2.3720609 -1.7354408,5.6174519 -6e-7,8.035443 z"
         transform="scale(0.6)" />
    </marker>
    <marker
       orient="auto"
       refY="0"
       refX="0"
       id="marker6664"
       style="overflow:visible">
      <path
         id="path6662"
         style="fill:#000000;fill-opacity:1;fill-rule:evenodd;stroke:#000000;stroke-width:0.625;stroke-linejoin:round;stroke-opacity:1"
         d="M 8.7185878,4.0337352 -2.2072895,0.01601326 8.7185884,-4.0017078 c -1.7454984,2.3720609 -1.7354408,5.6174519 -6e-7,8.035443 z"
         transform="scale(-0.6)" />
    </marker>
    <marker
       style="overflow:visible"
       id="marker6588"
       refX="0"
       refY="0"
       orient="auto">
      <path
         transform="scale(0.6)"
         d="M 8.7185878,4.0337352 -2.2072895,0.01601326 8.7185884,-4.0017078 c -1.7454984,2.3720609 -1.7354408,5.6174519 -6e-7,8.035443 z"
         style="fill:#000000;fill-opacity:1;fill-rule:evenodd;stroke:#000000;stroke-width:0.625;stroke-linejoin:round;stroke-opacity:1"
         id="path6586" />
    </marker>
    <marker
       style="overflow:visible"
       id="marker6494"
       refX="0"
       refY="0"
       orient="auto">
      <path
         transform="scale(-0.6)"
         d="M 8.7185878,4.0337352 -2.2072895,0.01601326 8.7185884,-4.0017078 c -1.7454984,2.3720609 -1.7354408,5.6174519 -6e-7,8.035443 z"
         style="fill:#000000;fill-opacity:1;fill-rule:evenodd;stroke:#000000;stroke-width:0.625;stroke-linejoin:round;stroke-opacity:1"
         id="path6492" />
    </marker>
    <marker
       style="overflow:visible"
       id="marker6430"
       refX="0"
       refY="0"
       orient="auto">
      <path
         transform="scale(0.6)"
         d="M 8.7185878,4.0337352 -2.2072895,0.01601326 8.7185884,-4.0017078 c -1.7454984,2.3720609 -1.7354408,5.6174519 -6e-7,8.035443 z"
         style="fill:#000000;fill-opacity:1;fill-rule:evenodd;stroke:#000000;stroke-width:0.625;stroke-linejoin:round;stroke-opacity:1"
         id="path6428" />
    </marker>
    <marker
       style="overflow:visible"
       id="Arrow1Mend"
       refX="0"
       refY="0"
       orient="auto">
      <path
         transform="matrix(-0.4,0,0,-0.4,-4,0)"
         style="fill:#000000;fill-opacity:1;fill-rule:evenodd;stroke:#000000;stroke-width:1.00000003pt;stroke-opacity:1"
         d="M 0,0 5,-5 -12.5,0 5,5 Z"
         id="path4639" />
    </marker>
    <marker
       orient="auto"
       refY="0"
       refX="0"
       id="marker5019"
       style="overflow:visible">
      <path
         id="path5017"
         style="fill:#000000;fill-opacity:1;fill-rule:evenodd;stroke:#000000;stroke-width:0.625;stroke-linejoin:round;stroke-opacity:1"
         d="M 8.7185878,4.0337352 -2.2072895,0.01601326 8.7185884,-4.0017078 c -1.7454984,2.3720609 -1.7354408,5.6174519 -6e-7,8.035443 z"
         transform="matrix(-1.1,0,0,-1.1,-1.1,0)" />
    </marker>
    <marker
       orient="auto"
       refY="0"
       refX="0"
       id="marker4973"
       style="overflow:visible">
      <path
         id="path4971"
         style="fill:#000000;fill-opacity:1;fill-rule:evenodd;stroke:#000000;stroke-width:0.625;stroke-linejoin:round;stroke-opacity:1"
         d="M 8.7185878,4.0337352 -2.2072895,0.01601326 8.7185884,-4.0017078 c -1.7454984,2.3720609 -1.7354408,5.6174519 -6e-7,8.035443 z"
         transform="matrix(1.1,0,0,1.1,1.1,0)" />
    </marker>
    <marker
       orient="auto"
       refY="0"
       refX="0"
       id="marker6746-3"
       style="overflow:visible">
      <path
         id="path6744-6"
         style="fill:#000000;fill-opacity:1;fill-rule:evenodd;stroke:#000000;stroke-width:0.625;stroke-linejoin:round;stroke-opacity:1"
         d="M 8.7185878,4.0337352 -2.2072895,0.01601326 8.7185884,-4.0017078 c -1.7454984,2.3720609 -1.7354408,5.6174519 -6e-7,8.035443 z"
         transform="scale(0.6)" />
    </marker>
    <marker
       orient="auto"
       refY="0"
       refX="0"
       id="marker6834-0"
       style="overflow:visible">
      <path
         id="path6832-6"
         style="fill:#000000;fill-opacity:1;fill-rule:evenodd;stroke:#000000;stroke-width:0.625;stroke-linejoin:round;stroke-opacity:1"
         d="M 8.7185878,4.0337352 -2.2072895,0.01601326 8.7185884,-4.0017078 c -1.7454984,2.3720609 -1.7354408,5.6174519 -6e-7,8.035443 z"
         transform="scale(-0.6)" />
    </marker>
    <marker
       style="overflow:visible"
       id="marker7455-6"
       refX="0"
       refY="0"
       orient="auto">
      <path
         transform="scale(0.6)"
         d="M 8.7185878,4.0337352 -2.2072895,0.01601326 8.7185884,-4.0017078 c -1.7454984,2.3720609 -1.7354408,5.6174519 -6e-7,8.035443 z"
         style="fill:#000000;fill-opacity:1;fill-rule:evenodd;stroke:#000000;stroke-width:0.625;stroke-linejoin:round;stroke-opacity:1"
         id="path7453-1" />
    </marker>
    <marker
       style="overflow:visible"
       id="marker7567-8"
       refX="0"
       refY="0"
       orient="auto">
      <path
         transform="scale(-0.6)"
         d="M 8.7185878,4.0337352 -2.2072895,0.01601326 8.7185884,-4.0017078 c -1.7454984,2.3720609 -1.7354408,5.6174519 -6e-7,8.035443 z"
         style="fill:#000000;fill-opacity:1;fill-rule:evenodd;stroke:#000000;stroke-width:0.625;stroke-linejoin:round;stroke-opacity:1"
         id="path7565-7" />
    </marker>
    <marker
       style="overflow:visible"
       id="marker7455-2"
       refX="0"
       refY="0"
       orient="auto">
      <path
         transform="scale(0.6)"
         d="M 8.7185878,4.0337352 -2.2072895,0.01601326 8.7185884,-4.0017078 c -1.7454984,2.3720609 -1.7354408,5.6174519 -6e-7,8.035443 z"
         style="fill:#000000;fill-opacity:1;fill-rule:evenodd;stroke:#000000;stroke-width:0.625;stroke-linejoin:round;stroke-opacity:1"
         id="path7453-0" />
    </marker>
    <marker
       style="overflow:visible"
       id="marker7567-2"
       refX="0"
       refY="0"
       orient="auto">
      <path
         transform="scale(-0.6)"
         d="M 8.7185878,4.0337352 -2.2072895,0.01601326 8.7185884,-4.0017078 c -1.7454984,2.3720609 -1.7354408,5.6174519 -6e-7,8.035443 z"
         style="fill:#000000;fill-opacity:1;fill-rule:evenodd;stroke:#000000;stroke-width:0.625;stroke-linejoin:round;stroke-opacity:1"
         id="path7565-3" />
    </marker>
    <marker
       style="overflow:visible"
       id="marker19480-5"
       refX="0"
       refY="0"
       orient="auto">
      <path
         transform="scale(0.6)"
         d="M 8.7185878,4.0337352 -2.2072895,0.01601326 8.7185884,-4.0017078 c -1.7454984,2.3720609 -1.7354408,5.6174519 -6e-7,8.035443 z"
         style="fill:#000000;fill-opacity:1;fill-rule:evenodd;stroke:#000000;stroke-width:0.625;stroke-linejoin:round;stroke-opacity:1"
         id="path19478-9" />
    </marker>
    <marker
       orient="auto"
       refY="0"
       refX="0"
       id="marker24696-7"
       style="overflow:visible">
      <path
         id="path24694-3"
         style="fill:#dedede;fill-opacity:1;fill-rule:evenodd;stroke:#dedede;stroke-width:0.625;stroke-linejoin:round;stroke-opacity:1"
         d="M 8.7185878,4.0337352 -2.2072895,0.01601326 8.7185884,-4.0017078 c -1.7454984,2.3720609 -1.7354408,5.6174519 -6e-7,8.035443 z"
         transform="scale(-0.6)" />
    </marker>
    <marker
       orient="auto"
       refY="0"
       refX="0"
       id="marker18780-6"
       style="overflow:visible">
      <path
         id="path18778-1"
         style="fill:#dedede;fill-opacity:1;fill-rule:evenodd;stroke:#dedede;stroke-width:0.625;stroke-linejoin:round;stroke-opacity:1"
         d="M 8.7185878,4.0337352 -2.2072895,0.01601326 8.7185884,-4.0017078 c -1.7454984,2.3720609 -1.7354408,5.6174519 -6e-7,8.035443 z"
         transform="scale(0.6)" />
    </marker>
    <marker
       orient="auto"
       refY="0"
       refX="0"
       id="marker22750-2"
       style="overflow:visible">
      <path
         id="path22748-9"
         style="fill:#dedede;fill-opacity:1;fill-rule:evenodd;stroke:#dedede;stroke-width:0.625;stroke-linejoin:round;stroke-opacity:1"
         d="M 8.7185878,4.0337352 -2.2072895,0.01601326 8.7185884,-4.0017078 c -1.7454984,2.3720609 -1.7354408,5.6174519 -6e-7,8.035443 z"
         transform="scale(-0.6)" />
    </marker>
    <marker
       style="overflow:visible"
       id="marker25306-3"
       refX="0"
       refY="0"
       orient="auto">
      <path
         transform="scale(0.6)"
         d="M 8.7185878,4.0337352 -2.2072895,0.01601326 8.7185884,-4.0017078 c -1.7454984,2.3720609 -1.7354408,5.6174519 -6e-7,8.035443 z"
         style="fill:#dedede;fill-opacity:1;fill-rule:evenodd;stroke:#dedede;stroke-width:0.625;stroke-linejoin:round;stroke-opacity:1"
         id="path25304-1" />
    </marker>
    <marker
       orient="auto"
       refY="0"
       refX="0"
       id="marker23126-9"
       style="overflow:visible">
      <path
         id="path23124-4"
         style="fill:#dedede;fill-opacity:1;fill-rule:evenodd;stroke:#dedede;stroke-width:0.625;stroke-linejoin:round;stroke-opacity:1"
         d="M 8.7185878,4.0337352 -2.2072895,0.01601326 8.7185884,-4.0017078 c -1.7454984,2.3720609 -1.7354408,5.6174519 -6e-7,8.035443 z"
         transform="scale(-0.6)" />
    </marker>
    <marker
       style="overflow:visible"
       id="marker18090-7"
       refX="0"
       refY="0"
       orient="auto">
      <path
         transform="scale(0.6)"
         d="M 8.7185878,4.0337352 -2.2072895,0.01601326 8.7185884,-4.0017078 c -1.7454984,2.3720609 -1.7354408,5.6174519 -6e-7,8.035443 z"
         style="fill:#dedede;fill-opacity:1;fill-rule:evenodd;stroke:#dedede;stroke-width:0.625;stroke-linejoin:round;stroke-opacity:1"
         id="path18088-8" />
    </marker>
    <marker
       orient="auto"
       refY="0"
       refX="0"
       id="marker23508-4"
       style="overflow:visible">
      <path
         id="path23506-5"
         style="fill:#dedede;fill-opacity:1;fill-rule:evenodd;stroke:#dedede;stroke-width:0.625;stroke-linejoin:round;stroke-opacity:1"
         d="M 8.7185878,4.0337352 -2.2072895,0.01601326 8.7185884,-4.0017078 c -1.7454984,2.3720609 -1.7354408,5.6174519 -6e-7,8.035443 z"
         transform="scale(-0.6)" />
    </marker>
    <marker
       orient="auto"
       refY="0"
       refX="0"
       id="marker17758-6"
       style="overflow:visible">
      <path
         id="path17756-1"
         style="fill:#000000;fill-opacity:1;fill-rule:evenodd;stroke:#000000;stroke-width:0.625;stroke-linejoin:round;stroke-opacity:1"
         d="M 8.7185878,4.0337352 -2.2072895,0.01601326 8.7185884,-4.0017078 c -1.7454984,2.3720609 -1.7354408,5.6174519 -6e-7,8.035443 z"
         transform="scale(-0.6)" />
    </marker>
    <marker
       style="overflow:visible"
       id="marker13644-7"
       refX="0"
       refY="0"
       orient="auto">
      <path
         transform="scale(0.6)"
         d="M 8.7185878,4.0337352 -2.2072895,0.01601326 8.7185884,-4.0017078 c -1.7454984,2.3720609 -1.7354408,5.6174519 -6e-7,8.035443 z"
         style="fill:#000000;fill-opacity:1;fill-rule:evenodd;stroke:#000000;stroke-width:0.625;stroke-linejoin:round;stroke-opacity:1"
         id="path13642-4" />
    </marker>
    <marker
       style="overflow:visible"
       id="marker13894-5"
       refX="0"
       refY="0"
       orient="auto">
      <path
         transform="scale(-0.6)"
         d="M 8.7185878,4.0337352 -2.2072895,0.01601326 8.7185884,-4.0017078 c -1.7454984,2.3720609 -1.7354408,5.6174519 -6e-7,8.035443 z"
         style="fill:#000000;fill-opacity:1;fill-rule:evenodd;stroke:#000000;stroke-width:0.625;stroke-linejoin:round;stroke-opacity:1"
         id="path13892-2" />
    </marker>
    <marker
       orient="auto"
       refY="0"
       refX="0"
       id="marker12094-8"
       style="overflow:visible">
      <path
         id="path12092-9"
         style="fill:#dedede;fill-opacity:1;fill-rule:evenodd;stroke:#dedede;stroke-width:0.625;stroke-linejoin:round;stroke-opacity:1"
         d="M 8.7185878,4.0337352 -2.2072895,0.01601326 8.7185884,-4.0017078 c -1.7454984,2.3720609 -1.7354408,5.6174519 -6e-7,8.035443 z"
         transform="scale(0.6)" />
    </marker>
    <marker
       orient="auto"
       refY="0"
       refX="0"
       id="marker12308-2"
       style="overflow:visible">
      <path
         id="path12306-6"
         style="fill:#dedede;fill-opacity:1;fill-rule:evenodd;stroke:#dedede;stroke-width:0.625;stroke-linejoin:round;stroke-opacity:1"
         d="M 8.7185878,4.0337352 -2.2072895,0.01601326 8.7185884,-4.0017078 c -1.7454984,2.3720609 -1.7354408,5.6174519 -6e-7,8.035443 z"
         transform="scale(-0.6)" />
    </marker>
    <marker
       orient="auto"
       refY="0"
       refX="0"
       id="marker23896-8"
       style="overflow:visible">
      <path
         id="path23894-7"
         style="fill:#dedede;fill-opacity:1;fill-rule:evenodd;stroke:#dedede;stroke-width:0.625;stroke-linejoin:round;stroke-opacity:1"
         d="M 8.7185878,4.0337352 -2.2072895,0.01601326 8.7185884,-4.0017078 c -1.7454984,2.3720609 -1.7354408,5.6174519 -6e-7,8.035443 z"
         transform="scale(-0.6)" />
    </marker>
    <marker
       orient="auto"
       refY="0"
       refX="0"
       id="marker24290-0"
       style="overflow:visible">
      <path
         id="path24288-6"
         style="fill:#dedede;fill-opacity:1;fill-rule:evenodd;stroke:#dedede;stroke-width:0.625;stroke-linejoin:round;stroke-opacity:1"
         d="M 8.7185878,4.0337352 -2.2072895,0.01601326 8.7185884,-4.0017078 c -1.7454984,2.3720609 -1.7354408,5.6174519 -6e-7,8.035443 z"
         transform="scale(-0.6)" />
    </marker>
    <marker
       style="overflow:visible"
       id="marker19480-4"
       refX="0"
       refY="0"
       orient="auto">
      <path
         transform="scale(0.6)"
         d="M 8.7185878,4.0337352 -2.2072895,0.01601326 8.7185884,-4.0017078 c -1.7454984,2.3720609 -1.7354408,5.6174519 -6e-7,8.035443 z"
         style="fill:#000000;fill-opacity:1;fill-rule:evenodd;stroke:#000000;stroke-width:0.625;stroke-linejoin:round;stroke-opacity:1"
         id="path19478-4" />
    </marker>
    <marker
       orient="auto"
       refY="0"
       refX="0"
       id="marker24696-3"
       style="overflow:visible">
      <path
         id="path24694-1"
         style="fill:#dedede;fill-opacity:1;fill-rule:evenodd;stroke:#dedede;stroke-width:0.625;stroke-linejoin:round;stroke-opacity:1"
         d="M 8.7185878,4.0337352 -2.2072895,0.01601326 8.7185884,-4.0017078 c -1.7454984,2.3720609 -1.7354408,5.6174519 -6e-7,8.035443 z"
         transform="scale(-0.6)" />
    </marker>
    <marker
       orient="auto"
       refY="0"
       refX="0"
       id="marker18780-7"
       style="overflow:visible">
      <path
         id="path18778-5"
         style="fill:#dedede;fill-opacity:1;fill-rule:evenodd;stroke:#dedede;stroke-width:0.625;stroke-linejoin:round;stroke-opacity:1"
         d="M 8.7185878,4.0337352 -2.2072895,0.01601326 8.7185884,-4.0017078 c -1.7454984,2.3720609 -1.7354408,5.6174519 -6e-7,8.035443 z"
         transform="scale(0.6)" />
    </marker>
    <marker
       orient="auto"
       refY="0"
       refX="0"
       id="marker22750-9"
       style="overflow:visible">
      <path
         id="path22748-6"
         style="fill:#dedede;fill-opacity:1;fill-rule:evenodd;stroke:#dedede;stroke-width:0.625;stroke-linejoin:round;stroke-opacity:1"
         d="M 8.7185878,4.0337352 -2.2072895,0.01601326 8.7185884,-4.0017078 c -1.7454984,2.3720609 -1.7354408,5.6174519 -6e-7,8.035443 z"
         transform="scale(-0.6)" />
    </marker>
    <marker
       style="overflow:visible"
       id="marker25306-2"
       refX="0"
       refY="0"
       orient="auto">
      <path
         transform="scale(0.6)"
         d="M 8.7185878,4.0337352 -2.2072895,0.01601326 8.7185884,-4.0017078 c -1.7454984,2.3720609 -1.7354408,5.6174519 -6e-7,8.035443 z"
         style="fill:#dedede;fill-opacity:1;fill-rule:evenodd;stroke:#dedede;stroke-width:0.625;stroke-linejoin:round;stroke-opacity:1"
         id="path25304-17" />
    </marker>
    <marker
       orient="auto"
       refY="0"
       refX="0"
       id="marker23126-8"
       style="overflow:visible">
      <path
         id="path23124-5"
         style="fill:#dedede;fill-opacity:1;fill-rule:evenodd;stroke:#dedede;stroke-width:0.625;stroke-linejoin:round;stroke-opacity:1"
         d="M 8.7185878,4.0337352 -2.2072895,0.01601326 8.7185884,-4.0017078 c -1.7454984,2.3720609 -1.7354408,5.6174519 -6e-7,8.035443 z"
         transform="scale(-0.6)" />
    </marker>
    <marker
       style="overflow:visible"
       id="marker18090-74"
       refX="0"
       refY="0"
       orient="auto">
      <path
         transform="scale(0.6)"
         d="M 8.7185878,4.0337352 -2.2072895,0.01601326 8.7185884,-4.0017078 c -1.7454984,2.3720609 -1.7354408,5.6174519 -6e-7,8.035443 z"
         style="fill:#dedede;fill-opacity:1;fill-rule:evenodd;stroke:#dedede;stroke-width:0.625;stroke-linejoin:round;stroke-opacity:1"
         id="path18088-1" />
    </marker>
    <marker
       orient="auto"
       refY="0"
       refX="0"
       id="marker23508-8"
       style="overflow:visible">
      <path
         id="path23506-59"
         style="fill:#dedede;fill-opacity:1;fill-rule:evenodd;stroke:#dedede;stroke-width:0.625;stroke-linejoin:round;stroke-opacity:1"
         d="M 8.7185878,4.0337352 -2.2072895,0.01601326 8.7185884,-4.0017078 c -1.7454984,2.3720609 -1.7354408,5.6174519 -6e-7,8.035443 z"
         transform="scale(-0.6)" />
    </marker>
    <marker
       orient="auto"
       refY="0"
       refX="0"
       id="marker17758-3"
       style="overflow:visible">
      <path
         id="path17756-8"
         style="fill:#000000;fill-opacity:1;fill-rule:evenodd;stroke:#000000;stroke-width:0.625;stroke-linejoin:round;stroke-opacity:1"
         d="M 8.7185878,4.0337352 -2.2072895,0.01601326 8.7185884,-4.0017078 c -1.7454984,2.3720609 -1.7354408,5.6174519 -6e-7,8.035443 z"
         transform="scale(-0.6)" />
    </marker>
    <marker
       style="overflow:visible"
       id="marker13644-9"
       refX="0"
       refY="0"
       orient="auto">
      <path
         transform="scale(0.6)"
         d="M 8.7185878,4.0337352 -2.2072895,0.01601326 8.7185884,-4.0017078 c -1.7454984,2.3720609 -1.7354408,5.6174519 -6e-7,8.035443 z"
         style="fill:#000000;fill-opacity:1;fill-rule:evenodd;stroke:#000000;stroke-width:0.625;stroke-linejoin:round;stroke-opacity:1"
         id="path13642-7" />
    </marker>
    <marker
       style="overflow:visible"
       id="marker13894-7"
       refX="0"
       refY="0"
       orient="auto">
      <path
         transform="scale(-0.6)"
         d="M 8.7185878,4.0337352 -2.2072895,0.01601326 8.7185884,-4.0017078 c -1.7454984,2.3720609 -1.7354408,5.6174519 -6e-7,8.035443 z"
         style="fill:#000000;fill-opacity:1;fill-rule:evenodd;stroke:#000000;stroke-width:0.625;stroke-linejoin:round;stroke-opacity:1"
         id="path13892-6" />
    </marker>
    <marker
       orient="auto"
       refY="0"
       refX="0"
       id="marker12094-4"
       style="overflow:visible">
      <path
         id="path12092-8"
         style="fill:#dedede;fill-opacity:1;fill-rule:evenodd;stroke:#dedede;stroke-width:0.625;stroke-linejoin:round;stroke-opacity:1"
         d="M 8.7185878,4.0337352 -2.2072895,0.01601326 8.7185884,-4.0017078 c -1.7454984,2.3720609 -1.7354408,5.6174519 -6e-7,8.035443 z"
         transform="scale(0.6)" />
    </marker>
    <marker
       orient="auto"
       refY="0"
       refX="0"
       id="marker12308-1"
       style="overflow:visible">
      <path
         id="path12306-2"
         style="fill:#dedede;fill-opacity:1;fill-rule:evenodd;stroke:#dedede;stroke-width:0.625;stroke-linejoin:round;stroke-opacity:1"
         d="M 8.7185878,4.0337352 -2.2072895,0.01601326 8.7185884,-4.0017078 c -1.7454984,2.3720609 -1.7354408,5.6174519 -6e-7,8.035443 z"
         transform="scale(-0.6)" />
    </marker>
    <marker
       orient="auto"
       refY="0"
       refX="0"
       id="marker23896-2"
       style="overflow:visible">
      <path
         id="path23894-1"
         style="fill:#dedede;fill-opacity:1;fill-rule:evenodd;stroke:#dedede;stroke-width:0.625;stroke-linejoin:round;stroke-opacity:1"
         d="M 8.7185878,4.0337352 -2.2072895,0.01601326 8.7185884,-4.0017078 c -1.7454984,2.3720609 -1.7354408,5.6174519 -6e-7,8.035443 z"
         transform="scale(-0.6)" />
    </marker>
    <marker
       orient="auto"
       refY="0"
       refX="0"
       id="marker24290-5"
       style="overflow:visible">
      <path
         id="path24288-0"
         style="fill:#dedede;fill-opacity:1;fill-rule:evenodd;stroke:#dedede;stroke-width:0.625;stroke-linejoin:round;stroke-opacity:1"
         d="M 8.7185878,4.0337352 -2.2072895,0.01601326 8.7185884,-4.0017078 c -1.7454984,2.3720609 -1.7354408,5.6174519 -6e-7,8.035443 z"
         transform="scale(-0.6)" />
    </marker>
    <filter
       style="color-interpolation-filters:sRGB"
       id="filter3941"
       width="1.96"
       y="-0.47999999"
       x="-0.47999999"
       height="1.96">
      <feGaussianBlur
         id="feGaussianBlur3943"
         stdDeviation="13.142858" />
    </filter>
    <linearGradient
       gradientUnits="userSpaceOnUse"
       y2="182.18102"
       x2="170.26248"
       y1="139.84767"
       x1="170.26248"
       id="linearGradient11532"
       xlink:href="#linearGradient24374" />
    <linearGradient
       y2="182.18102"
       x2="170.26248"
       y1="139.84767"
       x1="170.26248"
       gradientUnits="userSpaceOnUse"
       id="linearGradient11971"
       xlink:href="#linearGradient24380" />
    <linearGradient
       y2="182.18102"
       x2="170.26248"
       y1="139.84767"
       x1="170.26248"
       gradientUnits="userSpaceOnUse"
       id="linearGradient11995"
       xlink:href="#linearGradient24392" />
    <linearGradient
       y2="182.18102"
       x2="170.26248"
       y1="139.84767"
       x1="170.26248"
       gradientUnits="userSpaceOnUse"
       id="linearGradient12019"
       xlink:href="#linearGradient24398" />
    <linearGradient
       y2="182.18102"
       x2="170.26248"
       y1="139.84767"
       x1="170.26248"
       gradientUnits="userSpaceOnUse"
       id="linearGradient12043"
       xlink:href="#linearGradient24404" />
    <linearGradient
       y2="182.18102"
       x2="170.26248"
       y1="139.84767"
       x1="170.26248"
       gradientUnits="userSpaceOnUse"
       id="linearGradient12067"
       xlink:href="#linearGradient11915" />
    <linearGradient
       y2="182.18102"
       x2="170.26248"
       y1="139.84767"
       x1="170.26248"
       gradientUnits="userSpaceOnUse"
       id="linearGradient12091"
       xlink:href="#linearGradient24386" />
    <linearGradient
       gradientUnits="userSpaceOnUse"
       y2="182.18102"
       x2="170.26248"
       y1="139.84767"
       x1="170.26248"
       id="linearGradient11532-3"
       xlink:href="#linearGradient24404" />
    <linearGradient
       y2="182.18102"
       x2="170.26248"
       y1="139.84767"
       x1="170.26248"
       gradientUnits="userSpaceOnUse"
       id="linearGradient24558"
       xlink:href="#linearGradient24404" />
    <linearGradient
       y2="182.18102"
       x2="170.26248"
       y1="139.84767"
       x1="170.26248"
       gradientUnits="userSpaceOnUse"
       id="linearGradient24601"
       xlink:href="#linearGradient24404" />
  </defs>
  <metadata
     id="metadata5">
    <rdf:RDF>
      <cc:Work
         rdf:about="">
        <dc:format>image/svg+xml</dc:format>
        <dc:type
           rdf:resource="http://purl.org/dc/dcmitype/StillImage" />
        <dc:title></dc:title>
      </cc:Work>
    </rdf:RDF>
  </metadata>
  <g
     transform="translate(23.062503,-80.095826)"
     id="g6362"
     style="display:inline;opacity:0.98000004">
    <rect
       ry="2.5000002"
       y="90.624992"
       x="21.166664"
       height="105.83332"
       width="158.75"
       id="rect12143"
       style="fill:none;fill-opacity:1;stroke:#93a1a1;stroke-width:1.05833328;stroke-linejoin:round;stroke-miterlimit:4;stroke-dasharray:none;stroke-opacity:1" />
    <g
       id="g6330"
       transform="matrix(0.50000001,0,0,0.50000001,29.887764,95.710826)" />
    <text
       xml:space="preserve"
       style="font-style:normal;font-weight:normal;font-size:3.52777767px;line-height:1.25;font-family:sans-serif;text-align:center;letter-spacing:0px;word-spacing:0px;text-anchor:middle;fill:#000000;fill-opacity:1;stroke:none;stroke-width:0.26458332"
       x="76.729164"
       y="233.5"
       id="text6350"><tspan
         id="tspan6348"
         x="76.729164"
         y="236.62126"
         style="stroke-width:0.26458332" /></text>
    <g
       transform="translate(2.6458334,-13.229167)"
       id="g5970">
      <g
         id="g4103"
         transform="matrix(0.50000001,0,0,0.50000001,-42.797914,73.617821)">
        <rect
           ry="5"
           y="141.48689"
           x="150.42915"
           height="30"
           width="40"
           id="rect6332-6-9"
           style="fill:url(#linearGradient11532);fill-opacity:1;stroke:#000000;stroke-width:2;stroke-miterlimit:4;stroke-dasharray:none;stroke-opacity:1" />
        <rect
           y="171.95773"
           x="166.24164"
           height="5.8799295"
           width="9.0871639"
           id="rect6334-7-1"
           style="fill:#000700;fill-opacity:1;stroke:#000000;stroke-width:0;stroke-miterlimit:4;stroke-dasharray:none;stroke-opacity:1" />
        <rect
           style="fill:#000700;fill-opacity:1;stroke:#000000;stroke-width:0;stroke-miterlimit:4;stroke-dasharray:none;stroke-opacity:1"
           id="rect6336-5-2"
           width="19.999998"
           height="4.999999"
           x="160.78522"
           y="176.54178" />
        <text
           id="text6342-3-7"
           y="159.10516"
           x="170.42398"
           style="font-style:normal;font-weight:normal;font-size:7.05555534px;line-height:1.25;font-family:sans-serif;text-align:center;letter-spacing:0px;word-spacing:0px;text-anchor:middle;fill:#000000;fill-opacity:1;stroke:none;stroke-width:0.52916664"
           xml:space="preserve"><tspan
             id="tspan6340-6-9"
             style="font-style:normal;font-variant:normal;font-weight:bold;font-stretch:normal;font-family:sans-serif;-inkscape-font-specification:'sans-serif Bold';fill:#000000;fill-opacity:1;stroke-width:0.52916664"
             y="159.10516"
             x="170.42398">???</tspan></text>
      </g>
    </g>
    <g
       id="layer1"
       transform="matrix(0.26458333,0,0,0.26458333,-13.416227,-107.45162)">
      <g
         id="g3947" />
    </g>
    <g
       transform="translate(36.875,-37.041667)"
       id="g5970-8"
       style="display:inline;enable-background:new">
      <g
         id="g4103-50"
         transform="matrix(0.50000001,0,0,0.50000001,-42.797914,73.617821)">
        <rect
           ry="5"
           y="141.48689"
           x="150.42915"
           height="30"
           width="40"
           id="rect6332-6-9-96"
           style="fill:url(#linearGradient11971);fill-opacity:1;stroke:#000000;stroke-width:2;stroke-miterlimit:4;stroke-dasharray:none;stroke-opacity:1" />
        <rect
           y="171.95773"
           x="166.24164"
           height="5.8799295"
           width="9.0871639"
           id="rect6334-7-1-3"
           style="fill:#000700;fill-opacity:1;stroke:#000000;stroke-width:0;stroke-miterlimit:4;stroke-dasharray:none;stroke-opacity:1" />
        <rect
           style="fill:#000700;fill-opacity:1;stroke:#000000;stroke-width:0;stroke-miterlimit:4;stroke-dasharray:none;stroke-opacity:1"
           id="rect6336-5-2-8"
           width="19.999998"
           height="4.999999"
           x="160.78522"
           y="176.54178" />
        <text
           id="text6342-3-7-5"
           y="159.10516"
           x="170.42398"
           style="font-style:normal;font-weight:normal;font-size:7.05555534px;line-height:1.25;font-family:sans-serif;text-align:center;letter-spacing:0px;word-spacing:0px;text-anchor:middle;fill:#93a1a1;fill-opacity:1;stroke:none;stroke-width:0.52916664"
           xml:space="preserve"><tspan
             id="tspan6340-6-9-61"
             style="font-style:normal;font-variant:normal;font-weight:bold;font-stretch:normal;font-family:sans-serif;-inkscape-font-specification:'sans-serif Bold';fill:#000000;fill-opacity:1;stroke-width:0.52916664"
             y="159.10516"
             x="170.42398">???</tspan></text>
      </g>
    </g>
    <g
       transform="translate(49.635425,2.4658011)"
       id="g5970-9"
       style="display:inline;enable-background:new">
      <g
         id="g4103-8"
         transform="matrix(0.50000001,0,0,0.50000001,-42.797914,73.617821)">
        <rect
           ry="5"
           y="141.48689"
           x="150.42915"
           height="30"
           width="40"
           id="rect6332-6-9-4"
           style="fill:url(#linearGradient11995);fill-opacity:1;stroke:#000000;stroke-width:2;stroke-miterlimit:4;stroke-dasharray:none;stroke-opacity:1" />
        <rect
           y="171.95773"
           x="166.24164"
           height="5.8799295"
           width="9.0871639"
           id="rect6334-7-1-8"
           style="fill:#000700;fill-opacity:1;stroke:#000000;stroke-width:0;stroke-miterlimit:4;stroke-dasharray:none;stroke-opacity:1" />
        <rect
           style="fill:#000700;fill-opacity:1;stroke:#000000;stroke-width:0;stroke-miterlimit:4;stroke-dasharray:none;stroke-opacity:1"
           id="rect6336-5-2-1"
           width="19.999998"
           height="4.999999"
           x="160.78522"
           y="176.54178" />
        <text
           id="text6342-3-7-0"
           y="159.10516"
           x="170.42398"
           style="font-style:normal;font-weight:normal;font-size:7.05555534px;line-height:1.25;font-family:sans-serif;text-align:center;letter-spacing:0px;word-spacing:0px;text-anchor:middle;fill:#000000;fill-opacity:1;stroke:none;stroke-width:0.52916664"
           xml:space="preserve"><tspan
             id="tspan6340-6-9-30"
             style="font-style:normal;font-variant:normal;font-weight:bold;font-stretch:normal;font-family:sans-serif;-inkscape-font-specification:'sans-serif Bold';fill:#000000;fill-opacity:1;stroke-width:0.52916664"
             y="159.10516"
             x="170.42398">???</tspan></text>
      </g>
    </g>
    <g
       transform="translate(18.633512,23.632468)"
       id="g5970-4"
       style="display:inline;enable-background:new">
      <g
         id="g4103-4"
         transform="matrix(0.50000001,0,0,0.50000001,-42.797914,73.617821)">
        <rect
           ry="5"
           y="141.48689"
           x="150.42915"
           height="30"
           width="40"
           id="rect6332-6-9-7"
           style="fill:url(#linearGradient12019);fill-opacity:1;stroke:#000000;stroke-width:2;stroke-miterlimit:4;stroke-dasharray:none;stroke-opacity:1" />
        <rect
           y="171.95773"
           x="166.24164"
           height="5.8799295"
           width="9.0871639"
           id="rect6334-7-1-6"
           style="fill:#000700;fill-opacity:1;stroke:#000000;stroke-width:0;stroke-miterlimit:4;stroke-dasharray:none;stroke-opacity:1" />
        <rect
           style="fill:#000700;fill-opacity:1;stroke:#000000;stroke-width:0;stroke-miterlimit:4;stroke-dasharray:none;stroke-opacity:1"
           id="rect6336-5-2-3"
           width="19.999998"
           height="4.999999"
           x="160.78522"
           y="176.54178" />
        <text
           id="text6342-3-7-1"
           y="159.10516"
           x="170.42398"
           style="font-style:normal;font-weight:normal;font-size:7.05555534px;line-height:1.25;font-family:sans-serif;text-align:center;letter-spacing:0px;word-spacing:0px;text-anchor:middle;fill:#000000;fill-opacity:1;stroke:none;stroke-width:0.52916664"
           xml:space="preserve"><tspan
             id="tspan6340-6-9-7"
             style="font-style:normal;font-variant:normal;font-weight:bold;font-stretch:normal;font-family:sans-serif;-inkscape-font-specification:'sans-serif Bold';fill:#000000;fill-opacity:1;stroke-width:0.52916664"
             y="159.10516"
             x="170.42398">???</tspan></text>
      </g>
    </g>
    <g
       transform="translate(76.729167,26.458333)"
       id="g5970-62"
       style="display:inline;enable-background:new">
      <g
         id="g4103-1"
         transform="matrix(0.50000001,0,0,0.50000001,-42.797914,73.617821)">
        <rect
           ry="5"
           y="141.48689"
           x="150.42915"
           height="30"
           width="40"
           id="rect6332-6-9-78"
           style="fill:url(#linearGradient12043);fill-opacity:1;stroke:#000000;stroke-width:2;stroke-miterlimit:4;stroke-dasharray:none;stroke-opacity:1" />
        <rect
           y="171.95773"
           x="166.24164"
           height="5.8799295"
           width="9.0871639"
           id="rect6334-7-1-5"
           style="fill:#000700;fill-opacity:1;stroke:#000000;stroke-width:0;stroke-miterlimit:4;stroke-dasharray:none;stroke-opacity:1" />
        <rect
           style="fill:#000700;fill-opacity:1;stroke:#000000;stroke-width:0;stroke-miterlimit:4;stroke-dasharray:none;stroke-opacity:1"
           id="rect6336-5-2-7"
           width="19.999998"
           height="4.999999"
           x="160.78522"
           y="176.54178" />
        <text
           id="text6342-3-7-4"
           y="159.10516"
           x="170.42398"
           style="font-style:normal;font-weight:normal;font-size:7.05555534px;line-height:1.25;font-family:sans-serif;text-align:center;letter-spacing:0px;word-spacing:0px;text-anchor:middle;fill:#000000;fill-opacity:1;stroke:none;stroke-width:0.52916664"
           xml:space="preserve"><tspan
             id="tspan6340-6-9-1"
             style="font-style:normal;font-variant:normal;font-weight:bold;font-stretch:normal;font-family:sans-serif;-inkscape-font-specification:'sans-serif Bold';fill:#000000;fill-opacity:1;stroke-width:0.52916664"
             y="159.10516"
             x="170.42398">???</tspan></text>
      </g>
    </g>
    <g
       transform="translate(113.77084,-7.9375044)"
       id="g5970-97"
       style="display:inline;enable-background:new">
      <g
         id="g4103-5"
         transform="matrix(0.50000001,0,0,0.50000001,-42.797914,73.617821)">
        <rect
           ry="5"
           y="141.48689"
           x="150.42915"
           height="30"
           width="40"
           id="rect6332-6-9-3"
           style="fill:url(#linearGradient12067);fill-opacity:1;stroke:#000000;stroke-width:2;stroke-miterlimit:4;stroke-dasharray:none;stroke-opacity:1" />
        <rect
           y="171.95773"
           x="166.24164"
           height="5.8799295"
           width="9.0871639"
           id="rect6334-7-1-88"
           style="fill:#000700;fill-opacity:1;stroke:#000000;stroke-width:0;stroke-miterlimit:4;stroke-dasharray:none;stroke-opacity:1" />
        <rect
           style="fill:#000700;fill-opacity:1;stroke:#000000;stroke-width:0;stroke-miterlimit:4;stroke-dasharray:none;stroke-opacity:1"
           id="rect6336-5-2-31"
           width="19.999998"
           height="4.999999"
           x="160.78522"
           y="176.54178" />
        <text
           id="text6342-3-7-8"
           y="159.10516"
           x="170.42398"
           style="font-style:normal;font-weight:normal;font-size:7.05555534px;line-height:1.25;font-family:sans-serif;text-align:center;letter-spacing:0px;word-spacing:0px;text-anchor:middle;fill:#000000;fill-opacity:1;stroke:none;stroke-width:0.52916664"
           xml:space="preserve"><tspan
             id="tspan6340-6-9-96"
             style="font-style:normal;font-variant:normal;font-weight:bold;font-stretch:normal;font-family:sans-serif;-inkscape-font-specification:'sans-serif Bold';stroke-width:0.52916664"
             y="159.10516"
             x="170.42398">???</tspan></text>
      </g>
    </g>
    <g
       transform="translate(95.250003,-44.979171)"
       id="g5970-3"
       style="display:inline;enable-background:new">
      <g
         id="g4103-3"
         transform="matrix(0.50000001,0,0,0.50000001,-42.797914,73.617821)">
        <rect
           ry="5"
           y="141.48689"
           x="150.42915"
           height="30"
           width="40"
           id="rect6332-6-9-8"
           style="fill:url(#linearGradient12091);fill-opacity:1;stroke:#000000;stroke-width:2;stroke-miterlimit:4;stroke-dasharray:none;stroke-opacity:1" />
        <rect
           y="171.95773"
           x="166.24164"
           height="5.8799295"
           width="9.0871639"
           id="rect6334-7-1-60"
           style="fill:#000700;fill-opacity:1;stroke:#eee8d5;stroke-width:0;stroke-miterlimit:4;stroke-dasharray:none;stroke-opacity:1" />
        <rect
           style="fill:#000700;fill-opacity:1;stroke:#eee8d5;stroke-width:0;stroke-miterlimit:4;stroke-dasharray:none;stroke-opacity:1"
           id="rect6336-5-2-4"
           width="19.999998"
           height="4.999999"
           x="160.78522"
           y="176.54178" />
        <text
           id="text6342-3-7-88"
           y="159.10516"
           x="170.42398"
           style="font-style:normal;font-weight:normal;font-size:7.05555534px;line-height:1.25;font-family:sans-serif;text-align:center;letter-spacing:0px;word-spacing:0px;text-anchor:middle;fill:#93a1a1;fill-opacity:1;stroke:none;stroke-width:0.52916664"
           xml:space="preserve"><tspan
             id="tspan6340-6-9-8"
             style="font-style:normal;font-variant:normal;font-weight:bold;font-stretch:normal;font-family:sans-serif;-inkscape-font-specification:'sans-serif Bold';fill:#000000;fill-opacity:1;stroke-width:0.52916664"
             y="159.10516"
             x="170.42398">???</tspan></text>
      </g>
    </g>
    <text
       id="text12535"
       y="204.29591"
       x="144.12556"
       style="font-style:normal;font-weight:normal;font-size:10.58333302px;line-height:1.25;font-family:sans-serif;letter-spacing:0px;word-spacing:0px;fill:#000000;fill-opacity:1;stroke:none;stroke-width:0.26458332"
       xml:space="preserve"><tspan
         style="font-size:7.05555534px;fill:#93a1a1;fill-opacity:1;stroke-width:0.26458332"
         y="204.29591"
         x="144.12556"
         id="tspan12533">&quot;Internet&quot;</tspan></text>
    <g
       id="g24512">
      <g
         style="display:inline;enable-background:new"
         id="g5970-2"
         transform="translate(-44.979167,-1.4947869e-6)">
        <g
           transform="matrix(0.50000001,0,0,0.50000001,-42.797914,73.617821)"
           id="g4103-20">
          <rect
             style="fill:url(#linearGradient11532-3);fill-opacity:1;stroke:#69af22;stroke-width:2;stroke-miterlimit:4;stroke-dasharray:none;stroke-opacity:1"
             id="rect6332-6-9-2"
             width="40"
             height="30"
             x="150.42915"
             y="141.48689"
             ry="5" />
          <rect
             style="fill:#69af22;fill-opacity:1;stroke:#000000;stroke-width:0;stroke-miterlimit:4;stroke-dasharray:none;stroke-opacity:1"
             id="rect6334-7-1-1"
             width="9.0871639"
             height="5.8799295"
             x="166.24164"
             y="171.95773" />
          <rect
             y="176.54178"
             x="160.78522"
             height="4.999999"
             width="19.999998"
             id="rect6336-5-2-75"
             style="fill:#69af22;fill-opacity:1;stroke:#000000;stroke-width:0;stroke-miterlimit:4;stroke-dasharray:none;stroke-opacity:1" />
        </g>
      </g>
      <text
         xml:space="preserve"
         style="font-style:normal;font-weight:normal;font-size:5.29166651px;line-height:1.25;font-family:sans-serif;letter-spacing:0px;word-spacing:0px;display:inline;fill:#000000;fill-opacity:1;stroke:none;stroke-width:0.13229166;enable-background:new"
         x="-2.5935082"
         y="153.87148"
         id="text6314-1"><tspan
           id="tspan6312-7"
           x="-2.593508"
           y="153.87148"
           style="font-style:normal;font-variant:normal;font-weight:bold;font-stretch:normal;font-family:sans-serif;-inkscape-font-specification:'sans-serif Bold';text-align:center;text-anchor:middle;fill:#000000;fill-opacity:1;stroke-width:0.13229166">Kim</tspan></text>
    </g>
    <g
       id="g24512-1"
       style="display:inline;enable-background:new"
       transform="translate(203.5625,5.2916634)">
      <g
         style="display:inline;enable-background:new"
         id="g5970-2-7"
         transform="translate(-44.979167,-1.4947869e-6)">
        <g
           transform="matrix(0.50000001,0,0,0.50000001,-42.797914,73.617821)"
           id="g4103-20-0">
          <rect
             style="fill:url(#linearGradient24558);fill-opacity:1;stroke:#ff6b00;stroke-width:2;stroke-miterlimit:4;stroke-dasharray:none;stroke-opacity:1"
             id="rect6332-6-9-2-4"
             width="40"
             height="30"
             x="150.42915"
             y="141.48689"
             ry="5" />
          <rect
             style="fill:#ff6b00;fill-opacity:1;stroke:#000000;stroke-width:0;stroke-miterlimit:4;stroke-dasharray:none;stroke-opacity:1"
             id="rect6334-7-1-1-0"
             width="9.0871639"
             height="5.8799295"
             x="166.24164"
             y="171.95773" />
          <rect
             y="176.54178"
             x="160.78522"
             height="4.999999"
             width="19.999998"
             id="rect6336-5-2-75-8"
             style="fill:#ff6b00;fill-opacity:1;stroke:#000000;stroke-width:0;stroke-miterlimit:4;stroke-dasharray:none;stroke-opacity:1" />
        </g>
      </g>
      <text
         xml:space="preserve"
         style="font-style:normal;font-weight:normal;font-size:5.29166651px;line-height:1.25;font-family:sans-serif;letter-spacing:0px;word-spacing:0px;display:inline;fill:#000000;fill-opacity:1;stroke:none;stroke-width:0.13229166;enable-background:new"
         x="-2.5935082"
         y="153.87148"
         id="text6314-1-5"><tspan
           id="tspan6312-7-1"
           x="-2.5935082"
           y="153.87148"
           style="font-style:normal;font-variant:normal;font-weight:bold;font-stretch:normal;font-family:sans-serif;-inkscape-font-specification:'sans-serif Bold';text-align:center;text-anchor:middle;fill:#000000;fill-opacity:1;stroke-width:0.13229166">Alex</tspan></text>
    </g>
    <g
       transform="translate(73.999998,-21.486283)"
       id="g5970-97-1"
       style="display:inline;enable-background:new">
      <g
         id="g4103-5-9"
         transform="matrix(0.50000001,0,0,0.50000001,-42.797914,73.617821)">
        <rect
           ry="5"
           y="141.48689"
           x="150.42915"
           height="30"
           width="40"
           id="rect6332-6-9-3-6"
           style="fill:url(#linearGradient24601);fill-opacity:1;stroke:#ffd000;stroke-width:2;stroke-miterlimit:4;stroke-dasharray:none;stroke-opacity:1" />
        <rect
           y="171.95773"
           x="166.24164"
           height="5.8799295"
           width="9.0871639"
           id="rect6334-7-1-88-4"
           style="fill:#ffd000;fill-opacity:1;stroke:#000000;stroke-width:0;stroke-miterlimit:4;stroke-dasharray:none;stroke-opacity:1" />
        <rect
           style="fill:#ffd000;fill-opacity:1;stroke:#93a1a1;stroke-width:0;stroke-miterlimit:4;stroke-dasharray:none;stroke-opacity:1"
           id="rect6336-5-2-31-8"
           width="19.999998"
           height="4.999999"
           x="160.78522"
           y="176.54178" />
        <text
           id="text6342-3-7-8-0"
           y="154.59898"
           x="170.29996"
           style="font-style:normal;font-weight:normal;font-size:7.05555534px;line-height:1.25;font-family:sans-serif;text-align:center;letter-spacing:0px;word-spacing:0px;text-anchor:middle;fill:#000000;fill-opacity:1;stroke:none;stroke-width:0.52916664"
           xml:space="preserve"><tspan
             id="tspan6340-6-9-96-8"
             style="font-style:normal;font-variant:normal;font-weight:bold;font-stretch:normal;font-size:6.3499999px;font-family:sans-serif;-inkscape-font-specification:'sans-serif Bold';stroke-width:0.52916664"
             y="154.59898"
             x="170.29996">Internet-</tspan><tspan
             id="tspan24603"
             style="font-style:normal;font-variant:normal;font-weight:bold;font-stretch:normal;font-size:6.3499999px;font-family:sans-serif;-inkscape-font-specification:'sans-serif Bold';stroke-width:0.52916664"
             y="163.41843"
             x="170.29996">dienst</tspan></text>
      </g>
    </g>
    <path
       id="path7577"
       d="m 10.583331,151.47916 21.166667,-7.9375"
       style="display:inline;fill:none;stroke:#eee8d5;stroke-width:0.26458332;stroke-linecap:butt;stroke-linejoin:miter;stroke-miterlimit:4;stroke-dasharray:none;stroke-opacity:1;enable-background:new" />
    <path
       id="path7579"
       d="m 55.562498,130.31249 10.583333,-7.9375"
       style="display:inline;fill:none;stroke:#eee8d5;stroke-width:0.26458332;stroke-linecap:butt;stroke-linejoin:miter;stroke-miterlimit:4;stroke-dasharray:none;stroke-opacity:1;enable-background:new" />
    <path
       id="path7581"
       d="m 92.604165,119.72916 10.583335,5.29166"
       style="display:inline;fill:none;stroke:#eee8d5;stroke-width:0.26458332;stroke-linecap:butt;stroke-linejoin:miter;stroke-miterlimit:4;stroke-dasharray:none;stroke-opacity:1;enable-background:new" />
    <path
       id="path7583"
       d="m 129.64583,135.60416 13.22917,5.29166"
       style="display:inline;fill:none;stroke:#eee8d5;stroke-width:0.26458332;stroke-linecap:butt;stroke-linejoin:miter;stroke-miterlimit:4;stroke-dasharray:none;stroke-opacity:1;enable-background:new" />
    <path
       id="path7585"
       d="m 169.33333,148.83332 18.52083,7.9375"
       style="display:inline;fill:none;stroke:#eee8d5;stroke-width:0.26458332;stroke-linecap:butt;stroke-linejoin:miter;stroke-miterlimit:4;stroke-dasharray:none;stroke-opacity:1;enable-background:new" />
    <path
       id="path14921"
       d="m 84.666661,130.31249 5.291667,13.22916"
       style="fill:none;stroke:#eee8d5;stroke-width:0.26458332px;stroke-linecap:butt;stroke-linejoin:miter;stroke-opacity:1" />
    <path
       id="path14923"
       d="m 50.270828,154.12498 5.291667,10.58334"
       style="fill:none;stroke:#eee8d5;stroke-width:0.26458332px;stroke-linecap:butt;stroke-linejoin:miter;stroke-opacity:1" />
    <path
       id="path14925"
       d="M 60.854161,164.70832 74.083328,130.31249"
       style="fill:none;stroke:#eee8d5;stroke-width:0.26458332px;stroke-linecap:butt;stroke-linejoin:miter;stroke-opacity:1" />
    <path
       id="path14927"
       d="m 71.437495,164.70832 7.9375,-5.29167"
       style="fill:none;stroke:#eee8d5;stroke-width:0.26458332px;stroke-linecap:butt;stroke-linejoin:miter;stroke-opacity:1" />
    <path
       id="path14929"
       d="m 74.083328,175.29165 31.750002,5.29167"
       style="fill:none;stroke:#eee8d5;stroke-width:0.26458332px;stroke-linecap:butt;stroke-linejoin:miter;stroke-opacity:1" />
    <path
       id="path14931"
       d="m 58.208328,140.89582 21.166667,13.22916"
       style="fill:none;stroke:#eee8d5;stroke-width:0.26458332px;stroke-linecap:butt;stroke-linejoin:miter;stroke-opacity:1" />
    <path
       id="path14933"
       d="m 103.18749,164.70832 5.29167,2.64583"
       style="fill:none;stroke:#eee8d5;stroke-width:0.26458332px;stroke-linecap:butt;stroke-linejoin:miter;stroke-opacity:1" />
    <path
       id="path14935"
       d="m 116.41666,146.18749 v 21.16666"
       style="fill:none;stroke:#eee8d5;stroke-width:0.26458332px;stroke-linecap:butt;stroke-linejoin:miter;stroke-opacity:1" />
    <path
       id="path14937"
       d="m 100.54166,143.54165 5.29167,-2.64583"
       style="fill:none;stroke:#eee8d5;stroke-width:0.26458332px;stroke-linecap:butt;stroke-linejoin:miter;stroke-opacity:1" />
    <path
       id="path14939"
       d="m 92.604161,111.79165 31.749999,-5.29166"
       style="fill:none;stroke:#eee8d5;stroke-width:0.26458332px;stroke-linecap:butt;stroke-linejoin:miter;stroke-opacity:1" />
    <path
       id="path14941"
       d="m 126.99999,117.08332 -2.64583,2.64583"
       style="fill:none;stroke:#eee8d5;stroke-width:0.26458332px;stroke-linecap:butt;stroke-linejoin:miter;stroke-opacity:1" />
    <path
       id="path14943"
       d="m 132.29166,177.93748 18.52083,-18.52083"
       style="fill:none;stroke:#eee8d5;stroke-width:0.26458332px;stroke-linecap:butt;stroke-linejoin:miter;stroke-opacity:1" />
    <path
       id="path14945"
       d="m 137.58333,122.37499 -13.22917,44.97916"
       style="fill:none;stroke:#eee8d5;stroke-width:0.26458332px;stroke-linecap:butt;stroke-linejoin:miter;stroke-opacity:1" />
    <path
       id="path14947"
       d="m 153.45833,132.95832 -7.9375,-13.22917"
       style="fill:none;stroke:#eee8d5;stroke-width:0.26458332px;stroke-linecap:butt;stroke-linejoin:miter;stroke-opacity:1" />
  </g>
  <g
     style="display:inline"
     id="g25052"
     transform="translate(23.062503,-80.095826)">
    <rect
       style="fill:none;fill-opacity:1;stroke:#93a1a1;stroke-width:1.05833328;stroke-linejoin:round;stroke-miterlimit:4;stroke-dasharray:none;stroke-opacity:1"
       id="rect24880"
       width="158.75"
       height="105.83332"
       x="21.166664"
       y="90.624992"
       ry="2.5000002" />
    <g
       transform="matrix(0.50000001,0,0,0.50000001,29.887764,95.710826)"
       id="g24882" />
    <text
       id="text24886"
       y="233.5"
       x="76.729164"
       style="font-style:normal;font-weight:normal;font-size:3.52777767px;line-height:1.25;font-family:sans-serif;text-align:center;letter-spacing:0px;word-spacing:0px;text-anchor:middle;fill:#000000;fill-opacity:1;stroke:none;stroke-width:0.26458332"
       xml:space="preserve"><tspan
         style="stroke-width:0.26458332"
         y="236.62126"
         x="76.729164"
         id="tspan24884" /></text>
    <path
       style="fill:none;stroke:#eee8d5;stroke-width:0.79374999;stroke-linecap:butt;stroke-linejoin:miter;stroke-miterlimit:4;stroke-dasharray:none;stroke-opacity:1;marker-start:url(#marker4634);marker-end:url(#marker6772)"
       d="m 10.583331,151.47916 21.166667,-7.9375"
       id="path24902" />
    <path
       style="fill:none;stroke:#eee8d5;stroke-width:0.79374999;stroke-linecap:butt;stroke-linejoin:miter;stroke-miterlimit:4;stroke-dasharray:none;stroke-opacity:1;marker-start:url(#marker2264);marker-end:url(#marker2724)"
       d="m 55.562498,130.31249 10.583333,-7.9375"
       id="path24904" />
    <path
       style="fill:none;stroke:#eee8d5;stroke-width:0.79374999;stroke-linecap:butt;stroke-linejoin:miter;stroke-miterlimit:4;stroke-dasharray:none;stroke-opacity:1;marker-start:url(#marker3192);marker-end:url(#marker3664)"
       d="m 92.604165,119.72916 10.583335,5.29166"
       id="path24906" />
    <path
       style="fill:none;stroke:#eee8d5;stroke-width:0.79374999;stroke-linecap:butt;stroke-linejoin:miter;stroke-miterlimit:4;stroke-dasharray:none;stroke-opacity:1;marker-start:url(#marker6056);marker-end:url(#marker6540)"
       d="m 129.64583,135.60416 13.22917,5.29166"
       id="path24908" />
    <path
       style="fill:none;stroke:#eee8d5;stroke-width:0.79374999;stroke-linecap:butt;stroke-linejoin:miter;stroke-miterlimit:4;stroke-dasharray:none;stroke-opacity:1;marker-start:url(#marker7032);marker-end:url(#marker7528)"
       d="m 169.33333,148.83332 18.52083,7.9375"
       id="path24910" />
    <g
       transform="matrix(0.26458333,0,0,0.26458333,-13.416227,-107.45162)"
       id="g24914">
      <g
         id="g24912" />
    </g>
    <text
       xml:space="preserve"
       style="font-style:normal;font-weight:normal;font-size:10.58333302px;line-height:1.25;font-family:sans-serif;letter-spacing:0px;word-spacing:0px;fill:#000000;fill-opacity:1;stroke:none;stroke-width:0.26458332"
       x="144.12556"
       y="204.29591"
       id="text25002"><tspan
         id="tspan25000"
         x="144.12556"
         y="204.29591"
         style="font-size:7.05555534px;fill:#93a1a1;fill-opacity:1;stroke-width:0.26458332">&quot;Internet&quot;</tspan></text>
    <g
       id="g25018">
      <g
         transform="translate(-44.979167,-1.4947869e-6)"
         id="g25012"
         style="display:inline;enable-background:new">
        <g
           id="g25010"
           transform="matrix(0.50000001,0,0,0.50000001,-42.797914,73.617821)">
          <rect
             ry="5"
             y="141.48689"
             x="150.42915"
             height="30"
             width="40"
             id="rect25004"
             style="fill:url(#linearGradient11532-3);fill-opacity:1;stroke:#69af22;stroke-width:2;stroke-miterlimit:4;stroke-dasharray:none;stroke-opacity:1" />
          <rect
             y="171.95773"
             x="166.24164"
             height="5.8799295"
             width="9.0871639"
             id="rect25006"
             style="fill:#69af22;fill-opacity:1;stroke:#000000;stroke-width:0;stroke-miterlimit:4;stroke-dasharray:none;stroke-opacity:1" />
          <rect
             style="fill:#69af22;fill-opacity:1;stroke:#000000;stroke-width:0;stroke-miterlimit:4;stroke-dasharray:none;stroke-opacity:1"
             id="rect25008"
             width="19.999998"
             height="4.999999"
             x="160.78522"
             y="176.54178" />
        </g>
      </g>
      <text
         id="text25016"
         y="153.87148"
         x="-2.5935082"
         style="font-style:normal;font-weight:normal;font-size:5.29166651px;line-height:1.25;font-family:sans-serif;letter-spacing:0px;word-spacing:0px;display:inline;fill:#000000;fill-opacity:1;stroke:none;stroke-width:0.13229166;enable-background:new"
         xml:space="preserve"><tspan
           style="font-style:normal;font-variant:normal;font-weight:bold;font-stretch:normal;font-family:sans-serif;-inkscape-font-specification:'sans-serif Bold';text-align:center;text-anchor:middle;fill:#000000;fill-opacity:1;stroke-width:0.13229166"
           y="153.87148"
           x="-2.593508"
           id="tspan25014">Kim</tspan></text>
    </g>
  </g>
</svg>
